# Blender v2.81 (sub 16) OBJ File: 'scene.blend'
# www.blender.org
mtllib cube_floor.mtl
o Cube
v 10.000000 0.100000 -10.000000
v 10.000000 -0.100000 -10.000000
v 10.000000 0.100000 10.000000
v 10.000000 -0.100000 10.000000
v -10.000000 0.100000 -10.000000
v -10.000000 -0.100000 -10.000000
v -10.000000 0.100000 10.000000
v -10.000000 -0.100000 10.000000
vt 0.999900 0.000100
vt 0.000100 0.999900
vt 0.000100 0.000100
vt -0.046969 0.609281
vt -0.054688 0.617000
vt -0.054688 0.609281
vt -0.046969 0.586125
vt -0.054688 0.593844
vt -0.054688 0.586125
vt -0.054688 0.601562
vt -0.062406 0.609281
vt -0.062406 0.601562
vt -0.046969 0.601562
vt -0.046969 0.593844
vt 0.999900 0.999900
vt -0.046969 0.617000
vn 0.0000 1.0000 0.0000
vn 0.0000 0.0000 1.0000
vn -1.0000 0.0000 0.0000
vn 0.0000 -1.0000 0.0000
vn 1.0000 0.0000 0.0000
vn 0.0000 0.0000 -1.0000
usemtl Material
s off
f 5/1/1 3/2/1 1/3/1
f 3/4/2 8/5/2 4/6/2
f 7/7/3 6/8/3 8/9/3
f 2/10/4 8/11/4 6/12/4
f 1/13/5 4/6/5 2/10/5
f 5/14/6 2/10/6 6/8/6
f 5/1/1 7/15/1 3/2/1
f 3/4/2 7/16/2 8/5/2
f 7/7/3 5/14/3 6/8/3
f 2/10/4 4/6/4 8/11/4
f 1/13/5 3/4/5 4/6/5
f 5/14/6 1/13/6 2/10/6
